<?xml version="1.0" encoding="utf-8"?>
<!-- Generator: Adobe Illustrator 19.0.0, SVG Export Plug-In . SVG Version: 6.00 Build 0)  -->
<svg version="1.1" id="Layer_1" xmlns="http://www.w3.org/2000/svg" xmlns:xlink="http://www.w3.org/1999/xlink" x="0px" y="0px"
	 viewBox="-40.1 27.2 80 95" style="enable-background:new -40.1 27.2 80 95;" xml:space="preserve">
<style type="text/css">
	.st0{fill:#FFFFFF;}
</style>
<polygon id="XMLID_5_" class="st0" points="25.2,73.6 -16.9,73.6 6.6,50.1 5,48.5 -19.8,73.2 -19.8,73.2 -21.2,74.7 5,101 6.6,99.5 
	-16.9,76 25.2,76 "/>
</svg>
